{
 "namespace": "http://projectmallard.org/1.0/",
 "localname": "page",
 "attrs": {
  "type": "topic",
  "style": "concept",
  "id": "note1"
 },
 "children": [
  "\n  ",
  {
   "namespace": "http://projectmallard.org/1.0/",
   "localname": "info",
   "attrs": {},
   "children": [
    "\n    ",
    {
     "namespace": "http://projectmallard.org/1.0/",
     "localname": "credit",
     "attrs": {
      "type": "author copyright"
     },
     "children": [
      "\n      ",
      {
       "namespace": "http://projectmallard.org/1.0/",
       "localname": "name",
       "attrs": {},
       "children": [
        "Shaun McCance"
       ]
      },
      "\n      ",
      {
       "namespace": "http://projectmallard.org/1.0/",
       "localname": "email",
       "attrs": {},
       "children": [
        "shaunm@redhat.com"
       ]
      },
      "\n      ",
      {
       "namespace": "http://projectmallard.org/1.0/",
       "localname": "years",
       "attrs": {},
       "children": [
        "2020"
       ]
      },
      "\n    "
     ]
    },
    "\n\n    ",
    {
     "namespace": "http://projectmallard.org/1.0/",
     "localname": "desc",
     "attrs": {},
     "children": [
      "Note some notes. Tip some tips. Warn some warnings."
     ]
    },
    "\n\n    ",
    {
     "namespace": "http://projectmallard.org/experimental/ui/",
     "localname": "thumb",
     "attrs": {
      "src": "yelp.svg"
     },
     "children": []
    },
    "\n    ",
    {
     "namespace": "http://projectmallard.org/experimental/ui/",
     "localname": "thumb",
     "attrs": {
      "role": "experimental-gnome-tiles",
      "src": "banner-help.svg"
     },
     "children": []
    },
    "\n\n    ",
    {
     "namespace": "http://projectmallard.org/1.0/",
     "localname": "link",
     "attrs": {
      "type": "guide",
      "xref": "index"
     },
     "children": []
    },
    "\n  "
   ]
  },
  "\n\n  ",
  {
   "namespace": "http://projectmallard.org/1.0/",
   "localname": "title",
   "attrs": {},
   "children": [
    "Notes of a feather"
   ]
  },
  "\n\n  ",
  {
   "namespace": "http://projectmallard.org/1.0/",
   "localname": "p",
   "attrs": {},
   "children": [
    "Lorem ipsum dolor sit amet, consectetur adipiscing elit.\n  Morbi mauris ipsum, varius quis hendrerit eleifend, lobortis ac risus.\n  In congue ac nunc id luctus."
   ]
  },
  "\n\n  ",
  {
   "namespace": "http://projectmallard.org/1.0/",
   "localname": "note",
   "attrs": {},
   "children": [
    "\n    ",
    {
     "namespace": "http://projectmallard.org/1.0/",
     "localname": "p",
     "attrs": {},
     "children": [
      "Nullam tincidunt, ligula id consequat ullamcorper, risus erat volutpat.\n    Curabitur aliquam ut urna sed molestie. Integer non fringilla dui."
     ]
    },
    "\n  "
   ]
  },
  "\n\n  ",
  {
   "namespace": "http://projectmallard.org/1.0/",
   "localname": "p",
   "attrs": {},
   "children": [
    "Ut viverra facilisis dui, et pharetra nibh volutpat et.\n  Nunc vitae ante ac nulla convallis tristique eu sit amet leo.\n  Cras et turpis eu erat fermentum porttitor."
   ]
  },
  "\n\n  ",
  {
   "namespace": "http://projectmallard.org/1.0/",
   "localname": "note",
   "attrs": {
    "style": "sidebar"
   },
   "children": [
    "\n    ",
    {
     "namespace": "http://projectmallard.org/1.0/",
     "localname": "p",
     "attrs": {},
     "children": [
      "Donec euismod, nibh quis consequat pellentesque, urna ligula sollicitudin tortor,\n    eu vestibulum libero enim eget metus. Maecenas in iaculis sem.\n    Aenean dignissim pretium metus, eget pharetra neque ultrices et."
     ]
    },
    "\n\n    ",
    {
     "namespace": "http://projectmallard.org/1.0/",
     "localname": "p",
     "attrs": {},
     "children": [
      "Donec nec diam in eros eleifend pretium ut id dolor.\n    Quisque ut felis enim. Sed tincidunt risus eu feugiat semper.\n    Aliquam malesuada ligula ligula, ac consequat erat mattis efficitur."
     ]
    },
    "\n  "
   ]
  },
  "\n\n\n  ",
  {
   "namespace": "http://projectmallard.org/1.0/",
   "localname": "note",
   "attrs": {
    "style": "advanced"
   },
   "children": [
    "\n    ",
    {
     "namespace": "http://projectmallard.org/1.0/",
     "localname": "title",
     "attrs": {},
     "children": [
      "Advanced"
     ]
    },
    "\n    ",
    {
     "namespace": "http://projectmallard.org/1.0/",
     "localname": "p",
     "attrs": {},
     "children": [
      "Donec dictum tortor lorem, ut mattis est suscipit dapibus.\n    Lorem ipsum dolor sit amet, consectetur adipiscing elit.\n    Etiam feugiat mi semper mattis rhoncus. Sed laoreet convallis pharetra.\n    Cras semper nulla sit amet nulla dapibus finibus."
     ]
    },
    "\n  "
   ]
  },
  "\n\n  ",
  {
   "namespace": "http://projectmallard.org/1.0/",
   "localname": "p",
   "attrs": {},
   "children": [
    "Vestibulum interdum ipsum a faucibus lacinia.\n  Mauris et sem ultrices, ornare velit et, rutrum nisi."
   ]
  },
  "\n\n  ",
  {
   "namespace": "http://projectmallard.org/1.0/",
   "localname": "note",
   "attrs": {
    "style": "bug"
   },
   "children": [
    "\n    ",
    {
     "namespace": "http://projectmallard.org/1.0/",
     "localname": "title",
     "attrs": {},
     "children": [
      "Bug"
     ]
    },
    "\n    ",
    {
     "namespace": "http://projectmallard.org/1.0/",
     "localname": "p",
     "attrs": {},
     "children": [
      "Proin bibendum neque nec egestas sodales.\n    Curabitur mattis sapien vitae justo pellentesque eleifend.\n    Class aptent taciti sociosqu ad litora torquent per conubia nostra, per inceptos himenaeos.\n    Nulla commodo aliquam enim."
     ]
    },
    "\n  "
   ]
  },
  "\n\n  ",
  {
   "namespace": "http://projectmallard.org/1.0/",
   "localname": "p",
   "attrs": {},
   "children": [
    "Cras sit amet ultrices ligula. Donec mattis tincidunt ex ac ullamcorper.\n  Etiam pharetra dignissim ligula, vel tincidunt nisi hendrerit ut."
   ]
  },
  "\n\n  ",
  {
   "namespace": "http://projectmallard.org/1.0/",
   "localname": "note",
   "attrs": {
    "style": "caution"
   },
   "children": [
    "\n    ",
    {
     "namespace": "http://projectmallard.org/1.0/",
     "localname": "title",
     "attrs": {},
     "children": [
      "Caution"
     ]
    },
    "\n    ",
    {
     "namespace": "http://projectmallard.org/1.0/",
     "localname": "p",
     "attrs": {},
     "children": [
      "Proin bibendum neque nec egestas sodales.\n    Curabitur mattis sapien vitae justo pellentesque eleifend.\n    Class aptent taciti sociosqu ad litora torquent per conubia nostra, per inceptos himenaeos.\n    Nulla commodo aliquam enim."
     ]
    },
    "\n  "
   ]
  },
  "\n\n  ",
  {
   "namespace": "http://projectmallard.org/1.0/",
   "localname": "p",
   "attrs": {},
   "children": [
    "Ut viverra facilisis dui, et pharetra nibh volutpat et.\n  Nunc vitae ante ac nulla convallis tristique eu sit amet leo.\n  Cras et turpis eu erat fermentum porttitor."
   ]
  },
  "\n\n  ",
  {
   "namespace": "http://projectmallard.org/1.0/",
   "localname": "note",
   "attrs": {
    "style": "danger"
   },
   "children": [
    "\n    ",
    {
     "namespace": "http://projectmallard.org/1.0/",
     "localname": "title",
     "attrs": {},
     "children": [
      "Danger"
     ]
    },
    "\n    ",
    {
     "namespace": "http://projectmallard.org/1.0/",
     "localname": "p",
     "attrs": {},
     "children": [
      "Maecenas posuere urna odio, at congue quam imperdiet a.\n    Suspendisse vulputate sed quam in luctus.\n    Fusce hendrerit scelerisque dui eget faucibus.\n    Vivamus at augue molestie enim lacinia finibus eget a metus.\n    Curabitur non urna neque."
     ]
    },
    "\n  "
   ]
  },
  "\n\n  ",
  {
   "namespace": "http://projectmallard.org/1.0/",
   "localname": "p",
   "attrs": {},
   "children": [
    "Cras sit amet ultrices ligula. Donec mattis tincidunt ex ac ullamcorper.\n  Etiam pharetra dignissim ligula, vel tincidunt nisi hendrerit ut."
   ]
  },
  "\n\n  ",
  {
   "namespace": "http://projectmallard.org/1.0/",
   "localname": "note",
   "attrs": {
    "style": "important"
   },
   "children": [
    "\n    ",
    {
     "namespace": "http://projectmallard.org/1.0/",
     "localname": "title",
     "attrs": {},
     "children": [
      "Important"
     ]
    },
    "\n    ",
    {
     "namespace": "http://projectmallard.org/1.0/",
     "localname": "p",
     "attrs": {},
     "children": [
      "Etiam eleifend fringilla elementum. Vivamus ac dapibus dui."
     ]
    },
    "\n\n    ",
    {
     "namespace": "http://projectmallard.org/1.0/",
     "localname": "p",
     "attrs": {},
     "children": [
      "Phasellus et sem eget libero tempus porta at vitae urna.\n    Vestibulum id mauris auctor, tempus risus efficitur, lobortis libero.\n    In dui est, ornare at suscipit non, aliquam eu nulla."
     ]
    },
    "\n  "
   ]
  },
  "\n\n  ",
  {
   "namespace": "http://projectmallard.org/1.0/",
   "localname": "p",
   "attrs": {},
   "children": [
    "Pellentesque viverra tincidunt pretium.\n  Sed molestie dui metus, nec imperdiet nulla accumsan nec.\n  Ut consectetur tristique mauris, id rhoncus leo commodo eget."
   ]
  },
  "\n\n  ",
  {
   "namespace": "http://projectmallard.org/1.0/",
   "localname": "note",
   "attrs": {
    "style": "plain"
   },
   "children": [
    "\n    ",
    {
     "namespace": "http://projectmallard.org/1.0/",
     "localname": "title",
     "attrs": {},
     "children": [
      "Plain"
     ]
    },
    "\n    ",
    {
     "namespace": "http://projectmallard.org/1.0/",
     "localname": "p",
     "attrs": {},
     "children": [
      "Maecenas posuere urna odio, at congue quam imperdiet a.\n    Suspendisse vulputate sed quam in luctus.\n    Fusce hendrerit scelerisque dui eget faucibus.\n    Vivamus at augue molestie enim lacinia finibus eget a metus.\n    Curabitur non urna neque."
     ]
    },
    "\n  "
   ]
  },
  "\n\n  ",
  {
   "namespace": "http://projectmallard.org/1.0/",
   "localname": "p",
   "attrs": {},
   "children": [
    "Ut viverra facilisis dui, et pharetra nibh volutpat et.\n  Nunc vitae ante ac nulla convallis tristique eu sit amet leo.\n  Cras et turpis eu erat fermentum porttitor."
   ]
  },
  "\n\n  ",
  {
   "namespace": "http://projectmallard.org/1.0/",
   "localname": "note",
   "attrs": {
    "style": "tip"
   },
   "children": [
    "\n    ",
    {
     "namespace": "http://projectmallard.org/1.0/",
     "localname": "title",
     "attrs": {},
     "children": [
      "Tip"
     ]
    },
    "\n    ",
    {
     "namespace": "http://projectmallard.org/1.0/",
     "localname": "p",
     "attrs": {},
     "children": [
      "Donec dictum tortor lorem, ut mattis est suscipit dapibus.\n    Lorem ipsum dolor sit amet, consectetur adipiscing elit.\n    Etiam feugiat mi semper mattis rhoncus. Sed laoreet convallis pharetra.\n    Cras semper nulla sit amet nulla dapibus finibus."
     ]
    },
    "\n  "
   ]
  },
  "\n\n  ",
  {
   "namespace": "http://projectmallard.org/1.0/",
   "localname": "p",
   "attrs": {},
   "children": [
    "Vestibulum interdum ipsum a faucibus lacinia.\n  Mauris et sem ultrices, ornare velit et, rutrum nisi."
   ]
  },
  "\n\n  ",
  {
   "namespace": "http://projectmallard.org/1.0/",
   "localname": "note",
   "attrs": {
    "style": "warning"
   },
   "children": [
    "\n    ",
    {
     "namespace": "http://projectmallard.org/1.0/",
     "localname": "title",
     "attrs": {},
     "children": [
      "Warning"
     ]
    },
    "\n    ",
    {
     "namespace": "http://projectmallard.org/1.0/",
     "localname": "p",
     "attrs": {},
     "children": [
      "Proin bibendum neque nec egestas sodales.\n    Curabitur mattis sapien vitae justo pellentesque eleifend.\n    Class aptent taciti sociosqu ad litora torquent per conubia nostra, per inceptos himenaeos.\n    Nulla commodo aliquam enim."
     ]
    },
    "\n  "
   ]
  },
  "\n\n  ",
  {
   "namespace": "http://projectmallard.org/1.0/",
   "localname": "p",
   "attrs": {},
   "children": [
    "Ut viverra facilisis dui, et pharetra nibh volutpat et.\n  Nunc vitae ante ac nulla convallis tristique eu sit amet leo.\n  Cras et turpis eu erat fermentum porttitor."
   ]
  },
  "\n"
 ]
}